{
    "photos": {
        "page": 1,
        "pages": 40,
        "perpage": 25,
        "total": 1000,
        "photo": [
            {
                "id": "48368563631",
                "owner": "49938213@N04",
                "secret": "bf3f2584c1",
                "server": "65535",
                "farm": 66,
                "title": "Summer break nearly.done...will miss the yard and the flowers. Until next year!",
                "ispublic": 1,
                "isfriend": 0,
                "isfamily": 0
            },
            {
                "id": "48368563646",
                "owner": "16450474@N06",
                "secret": "c683d006e9",
                "server": "65535",
                "farm": 66,
                "title": "He sells what he loves #newjersey #candid #candidphotography #sweet_street_beat #countyfair #oceangrove #oceangrovenj #bagels #sony #sonya7iii #sonyalpha #summertime",
                "ispublic": 1,
                "isfriend": 0,
                "isfamily": 0
            },
            {
                "id": "48368564336",
                "owner": "124708699@N02",
                "secret": "a60c2c0fb2",
                "server": "65535",
                "farm": 66,
                "title": "Kat Tamer",
                "ispublic": 1,
                "isfriend": 0,
                "isfamily": 0
            },
            {
                "id": "48368564716",
                "owner": "47226058@N04",
                "secret": "711f2c1fef",
                "server": "65535",
                "farm": 66,
                "title": "I had so much fun greeting the 550 Urban Sketchers attending workshops at the 10th Urban Sketchers Symposium in Amsterdam alongside @ruudsketcher @gailpatriciahoward! #amsterdam #zuiderkerk #urbansketchers #uskamsterdam2019",
                "ispublic": 1,
                "isfriend": 0,
                "isfamily": 0
            },
            {
                "id": "48368565446",
                "owner": "144437346@N02",
                "secret": "e9067aacfc",
                "server": "65535",
                "farm": 66,
                "title": "Mỹ phẩm Shiseido Kem chống nắng Shiseido Suncare Multi-Defense UV Protector SPF50, PA+++ 30ml",
                "ispublic": 1,
                "isfriend": 0,
                "isfamily": 0
            },
            {
                "id": "48368565661",
                "owner": "139606678@N03",
                "secret": "39d45ab6b3",
                "server": "65535",
                "farm": 66,
                "title": "Altar de Oro Iglesia San José  Panamá",
                "ispublic": 1,
                "isfriend": 0,
                "isfamily": 0
            },
            {
                "id": "48368565806",
                "owner": "137877590@N04",
                "secret": "d461dee464",
                "server": "65535",
                "farm": 66,
                "title": "Versailles",
                "ispublic": 1,
                "isfriend": 0,
                "isfamily": 0
            },
            {
                "id": "48368565876",
                "owner": "182832244@N06",
                "secret": "bf084af38e",
                "server": "65535",
                "farm": 66,
                "title": "OLYMPUS M.17mm F1.2 & PEN-F: Property, Building, Architecture, Home, House, Wall, Door, Facade, Real estate, and Window.",
                "ispublic": 1,
                "isfriend": 0,
                "isfamily": 0
            },
            {
                "id": "48368566671",
                "owner": "14904436@N00",
                "secret": "db77ddd284",
                "server": "65535",
                "farm": 66,
                "title": "Vancouver, BC Engine 18",
                "ispublic": 1,
                "isfriend": 0,
                "isfamily": 0
            },
            {
                "id": "48368567116",
                "owner": "182122788@N06",
                "secret": "96aed8257e",
                "server": "65535",
                "farm": 66,
                "title": "Por la tarde del tercer día hemos conocido el pueblo de Baños de Montemayor #veranoJovenmania",
                "ispublic": 1,
                "isfriend": 0,
                "isfamily": 0
            },
            {
                "id": "48368567146",
                "owner": "40148111@N00",
                "secret": "e43e36499d",
                "server": "65535",
                "farm": 66,
                "title": "P7241815.jpg",
                "ispublic": 1,
                "isfriend": 0,
                "isfamily": 0
            },
            {
                "id": "48368567746",
                "owner": "163284578@N08",
                "secret": "b3b0d99b72",
                "server": "65535",
                "farm": 66,
                "title": "",
                "ispublic": 1,
                "isfriend": 0,
                "isfamily": 0
            },
            {
                "id": "48368568811",
                "owner": "155843624@N07",
                "secret": "00931de160",
                "server": "65535",
                "farm": 66,
                "title": "2019-07-24_07-08-56",
                "ispublic": 1,
                "isfriend": 0,
                "isfamily": 0
            },
            {
                "id": "48368569201",
                "owner": "63682720@N06",
                "secret": "cceec3083e",
                "server": "65535",
                "farm": 66,
                "title": "90630364.jpg",
                "ispublic": 1,
                "isfriend": 0,
                "isfamily": 0
            },
            {
                "id": "48368569696",
                "owner": "147794324@N06",
                "secret": "6ac6f77c98",
                "server": "65535",
                "farm": 66,
                "title": "Inauguração Posto Campo de Avião",
                "ispublic": 1,
                "isfriend": 0,
                "isfamily": 0
            },
            {
                "id": "48368569761",
                "owner": "182256454@N02",
                "secret": "fdba6d8d32",
                "server": "65535",
                "farm": 66,
                "title": "",
                "ispublic": 1,
                "isfriend": 0,
                "isfamily": 0
            },
            {
                "id": "48368569796",
                "owner": "151639852@N07",
                "secret": "ec09b11e70",
                "server": "65535",
                "farm": 66,
                "title": "2019-07-21_11-02-22_ILCE-6500_DSC09162",
                "ispublic": 1,
                "isfriend": 0,
                "isfamily": 0
            },
            {
                "id": "48368570051",
                "owner": "12071889@N00",
                "secret": "afb608179b",
                "server": "65535",
                "farm": 66,
                "title": "IMGP2149ed",
                "ispublic": 1,
                "isfriend": 0,
                "isfamily": 0
            },
            {
                "id": "48368570526",
                "owner": "144329121@N08",
                "secret": "77ca4cd9b8",
                "server": "65535",
                "farm": 66,
                "title": "This image is taken from Dental cosmos, 60, (1918)",
                "ispublic": 1,
                "isfriend": 0,
                "isfamily": 0
            },
            {
                "id": "48368700742",
                "owner": "160086360@N02",
                "secret": "c4e30f8b8e",
                "server": "65535",
                "farm": 66,
                "title": "",
                "ispublic": 1,
                "isfriend": 0,
                "isfamily": 0
            },
            {
                "id": "48368701777",
                "owner": "155864273@N06",
                "secret": "582e315e94",
                "server": "65535",
                "farm": 66,
                "title": "",
                "ispublic": 1,
                "isfriend": 0,
                "isfamily": 0
            },
            {
                "id": "48368702002",
                "owner": "164106271@N05",
                "secret": "e88458d464",
                "server": "65535",
                "farm": 66,
                "title": "Pumpkin. . . . What can we say about Pumpkin, what she lacks in stature, she makes up for with spunk. Although only little, Pumpkin still need proper care and nutrition, her normal out goings of feed hay feet are $18 a week, that's just 14 wonderful peopl",
                "ispublic": 1,
                "isfriend": 0,
                "isfamily": 0
            },
            {
                "id": "48368703112",
                "owner": "101537078@N07",
                "secret": "1411abe272",
                "server": "65535",
                "farm": 66,
                "title": "_MG_3263",
                "ispublic": 1,
                "isfriend": 0,
                "isfamily": 0
            },
            {
                "id": "48368703442",
                "owner": "157491234@N03",
                "secret": "4581f4ee64",
                "server": "65535",
                "farm": 66,
                "title": "2019-07-24_05-05-16",
                "ispublic": 1,
                "isfriend": 0,
                "isfamily": 0
            },
            {
                "id": "48368704742",
                "owner": "155579801@N02",
                "secret": "2b69f4e27d",
                "server": "65535",
                "farm": 66,
                "title": "Soak Up the Sun",
                "ispublic": 1,
                "isfriend": 0,
                "isfamily": 0
            }
        ]
    },
    "stat": "ok"
}
