{
  "photos": {
    "page": 1,
    "pages": 2,
    "perpage": 25,
    "total": "49",
    "photo": [
      {
        "id": "19241464342",
        "owner": "7221539@N06",
        "secret": "01699fb225",
        "server": "373",
        "farm": 1,
        "title": "Royal Poinciana | 150607-2774-jikatu",
        "ispublic": 1,
        "isfriend": 0,
        "isfamily": 0
      },
      {
        "id": "19221184986",
        "owner": "7221539@N06",
        "secret": "d8f3b3d81b",
        "server": "291",
        "farm": 1,
        "title": "Frisbee under Banyan tree | 150607-2779-jikatu",
        "ispublic": 1,
        "isfriend": 0,
        "isfamily": 0
      },
      {
        "id": "18405396983",
        "owner": "7221539@N06",
        "secret": "4cd3d66bae",
        "server": "434",
        "farm": 1,
        "title": "Royal Poinciana @ Merrie Christmas Park | 150607-2789-jikatu",
        "ispublic": 1,
        "isfriend": 0,
        "isfamily": 0
      },
      {
        "id": "19029161421",
        "owner": "7221539@N06",
        "secret": "803bc1f03f",
        "server": "521",
        "farm": 1,
        "title": "Merrie Christmas Park | 150607-2784-jikatu",
        "ispublic": 1,
        "isfriend": 0,
        "isfamily": 0
      },
      {
        "id": "18405378653",
        "owner": "7221539@N06",
        "secret": "4cf4a3b7fe",
        "server": "259",
        "farm": 1,
        "title": "Merrie Christmas Park | 150607-2778-jikatu",
        "ispublic": 1,
        "isfriend": 0,
        "isfamily": 0
      },
      {
        "id": "18839848879",
        "owner": "7221539@N06",
        "secret": "bcb6b185f9",
        "server": "358",
        "farm": 1,
        "title": "Merrie Christmas Park | 150607-2767-jikatu",
        "ispublic": 1,
        "isfriend": 0,
        "isfamily": 0
      },
      {
        "id": "19029134451",
        "owner": "7221539@N06",
        "secret": "290a5ea39f",
        "server": "496",
        "farm": 1,
        "title": "Royal Poinciana @ Merrie Christmas Park | 150607-2743-jikatu",
        "ispublic": 1,
        "isfriend": 0,
        "isfamily": 0
      },
      {
        "id": "31193961378",
        "owner": "76645795@N05",
        "secret": "64a3cbe9f8",
        "server": "1943",
        "farm": 2,
        "title": "Simply white flower in green...",
        "ispublic": 1,
        "isfriend": 0,
        "isfamily": 0
      },
      {
        "id": "27068539368",
        "owner": "65053702@N00",
        "secret": "75bcd7b6bf",
        "server": "4779",
        "farm": 5,
        "title": "Pansy",
        "ispublic": 1,
        "isfriend": 0,
        "isfamily": 0
      },
      {
        "id": "29792250665",
        "owner": "139259445@N07",
        "secret": "ca5ec80d0b",
        "server": "8543",
        "farm": 9,
        "title": "20160918-122410-P1380556.jpg",
        "ispublic": 1,
        "isfriend": 0,
        "isfamily": 0
      },
      {
        "id": "29392424032",
        "owner": "139259445@N07",
        "secret": "f82f399f1d",
        "server": "8231",
        "farm": 9,
        "title": "20160401-0068-101251-D71_3408.jpg",
        "ispublic": 1,
        "isfriend": 0,
        "isfamily": 0
      },
      {
        "id": "28582622234",
        "owner": "139259445@N07",
        "secret": "b98a222b8f",
        "server": "8395",
        "farm": 9,
        "title": "20160702-122400-P1270722.jpg",
        "ispublic": 1,
        "isfriend": 0,
        "isfamily": 0
      },
      {
        "id": "25797014050",
        "owner": "139259445@N07",
        "secret": "4f00eaf7dc",
        "server": "1464",
        "farm": 2,
        "title": "20160228-0238-151231-P1170302.jpg",
        "ispublic": 1,
        "isfriend": 0,
        "isfamily": 0
      },
      {
        "id": "25755588260",
        "owner": "139259445@N07",
        "secret": "dcb5a72797",
        "server": "1586",
        "farm": 2,
        "title": "20160207-0538-145633-D71_2642.jpg",
        "ispublic": 1,
        "isfriend": 0,
        "isfamily": 0
      },
      {
        "id": "24809866326",
        "owner": "139259445@N07",
        "secret": "ae3a014fb5",
        "server": "1635",
        "farm": 2,
        "title": "20160113-0066-094013-P1650780.jpg",
        "ispublic": 1,
        "isfriend": 0,
        "isfamily": 0
      },
      {
        "id": "24209283743",
        "owner": "139259445@N07",
        "secret": "e85df804f8",
        "server": "1502",
        "farm": 2,
        "title": "20160113-0064-094004-P1650778.jpg",
        "ispublic": 1,
        "isfriend": 0,
        "isfamily": 0
      },
      {
        "id": "24209275273",
        "owner": "139259445@N07",
        "secret": "72b2a839c9",
        "server": "1635",
        "farm": 2,
        "title": "20160113-0062-091840-P1650776.jpg",
        "ispublic": 1,
        "isfriend": 0,
        "isfamily": 0
      },
      {
        "id": "24191286409",
        "owner": "139259445@N07",
        "secret": "7cacd20697",
        "server": "1467",
        "farm": 2,
        "title": "P1080416.jpg",
        "ispublic": 1,
        "isfriend": 0,
        "isfamily": 0
      },
      {
        "id": "23930846994",
        "owner": "139259445@N07",
        "secret": "33896871e6",
        "server": "1673",
        "farm": 2,
        "title": "P1080355.jpg",
        "ispublic": 1,
        "isfriend": 0,
        "isfamily": 0
      },
      {
        "id": "24379963431",
        "owner": "139259445@N07",
        "secret": "027546fe5d",
        "server": "1516",
        "farm": 2,
        "title": "P1650469.jpg",
        "ispublic": 1,
        "isfriend": 0,
        "isfamily": 0
      },
      {
        "id": "23810202864",
        "owner": "139259445@N07",
        "secret": "9eeeafd0b9",
        "server": "1507",
        "farm": 2,
        "title": "P1650384.jpg",
        "ispublic": 1,
        "isfriend": 0,
        "isfamily": 0
      },
      {
        "id": "24048763679",
        "owner": "139259445@N07",
        "secret": "c8ae962137",
        "server": "1666",
        "farm": 2,
        "title": "P1120032.jpg",
        "ispublic": 1,
        "isfriend": 0,
        "isfamily": 0
      },
      {
        "id": "22623136987",
        "owner": "129942757@N05",
        "secret": "5fca2409cd",
        "server": "5685",
        "farm": 6,
        "title": "Helleborus argutifolius, Korsikanjouluruusu",
        "ispublic": 1,
        "isfriend": 0,
        "isfamily": 0
      },
      {
        "id": "20063254403",
        "owner": "133825143@N04",
        "secret": "b8db120eb3",
        "server": "5786",
        "farm": 6,
        "title": "Bursting Green Flower",
        "ispublic": 1,
        "isfriend": 0,
        "isfamily": 0
      }
    ]
  },
  "stat": "ok"
}